%YAML 1.1
%TAG !u! tag:unity3d.com,2011:
--- !u!1001 &1858567146145494918
PrefabInstance:
  m_ObjectHideFlags: 0
  serializedVersion: 2
  m_Modification:
    m_TransformParent: {fileID: 0}
    m_Modifications:
    - target: {fileID: 4767402329826387119, guid: f907ac33191eca3408e9474f17783db3,
        type: 3}
      propertyPath: m_Color.r
      value: 0.13725491
      objectReference: {fileID: 0}
    - target: {fileID: 4767402329826387119, guid: f907ac33191eca3408e9474f17783db3,
        type: 3}
      propertyPath: m_Color.g
      value: 0.5411765
      objectReference: {fileID: 0}
    - target: {fileID: 4767402329826387119, guid: f907ac33191eca3408e9474f17783db3,
        type: 3}
      propertyPath: m_Color.b
      value: 0.05882353
      objectReference: {fileID: 0}
    - target: {fileID: 4767402330963475453, guid: f907ac33191eca3408e9474f17783db3,
        type: 3}
      propertyPath: m_Color.r
      value: 0.13725491
      objectReference: {fileID: 0}
    - target: {fileID: 4767402330963475453, guid: f907ac33191eca3408e9474f17783db3,
        type: 3}
      propertyPath: m_Color.g
      value: 0.5411765
      objectReference: {fileID: 0}
    - target: {fileID: 4767402330963475453, guid: f907ac33191eca3408e9474f17783db3,
        type: 3}
      propertyPath: m_Color.b
      value: 0.05882353
      objectReference: {fileID: 0}
    - target: {fileID: 4767402331332302784, guid: f907ac33191eca3408e9474f17783db3,
        type: 3}
      propertyPath: m_Color.r
      value: 0.13725491
      objectReference: {fileID: 0}
    - target: {fileID: 4767402331332302784, guid: f907ac33191eca3408e9474f17783db3,
        type: 3}
      propertyPath: m_Color.g
      value: 0.5377358
      objectReference: {fileID: 0}
    - target: {fileID: 4767402331332302784, guid: f907ac33191eca3408e9474f17783db3,
        type: 3}
      propertyPath: m_Color.b
      value: 0.058339275
      objectReference: {fileID: 0}
    - target: {fileID: 4767402331332302785, guid: f907ac33191eca3408e9474f17783db3,
        type: 3}
      propertyPath: m_LocalPosition.x
      value: 0.28900355
      objectReference: {fileID: 0}
    - target: {fileID: 4767402331332302785, guid: f907ac33191eca3408e9474f17783db3,
        type: 3}
      propertyPath: m_LocalPosition.y
      value: 0.3049944
      objectReference: {fileID: 0}
    - target: {fileID: 4767402331332302785, guid: f907ac33191eca3408e9474f17783db3,
        type: 3}
      propertyPath: m_LocalPosition.z
      value: 1.7070985
      objectReference: {fileID: 0}
    - target: {fileID: 4767402331332302785, guid: f907ac33191eca3408e9474f17783db3,
        type: 3}
      propertyPath: m_LocalRotation.x
      value: -0
      objectReference: {fileID: 0}
    - target: {fileID: 4767402331332302785, guid: f907ac33191eca3408e9474f17783db3,
        type: 3}
      propertyPath: m_LocalRotation.y
      value: -0
      objectReference: {fileID: 0}
    - target: {fileID: 4767402331332302785, guid: f907ac33191eca3408e9474f17783db3,
        type: 3}
      propertyPath: m_LocalRotation.z
      value: -0
      objectReference: {fileID: 0}
    - target: {fileID: 4767402331332302785, guid: f907ac33191eca3408e9474f17783db3,
        type: 3}
      propertyPath: m_LocalRotation.w
      value: 1
      objectReference: {fileID: 0}
    - target: {fileID: 4767402331332302785, guid: f907ac33191eca3408e9474f17783db3,
        type: 3}
      propertyPath: m_RootOrder
      value: 0
      objectReference: {fileID: 0}
    - target: {fileID: 4767402331332302785, guid: f907ac33191eca3408e9474f17783db3,
        type: 3}
      propertyPath: m_LocalEulerAnglesHint.x
      value: 0
      objectReference: {fileID: 0}
    - target: {fileID: 4767402331332302785, guid: f907ac33191eca3408e9474f17783db3,
        type: 3}
      propertyPath: m_LocalEulerAnglesHint.y
      value: 0
      objectReference: {fileID: 0}
    - target: {fileID: 4767402331332302785, guid: f907ac33191eca3408e9474f17783db3,
        type: 3}
      propertyPath: m_LocalEulerAnglesHint.z
      value: 0
      objectReference: {fileID: 0}
    - target: {fileID: 4767402331332302799, guid: f907ac33191eca3408e9474f17783db3,
        type: 3}
      propertyPath: m_Name
      value: TargetGreen Variant
      objectReference: {fileID: 0}
    - target: {fileID: 4767402331403148442, guid: f907ac33191eca3408e9474f17783db3,
        type: 3}
      propertyPath: m_Color.r
      value: 0.13725491
      objectReference: {fileID: 0}
    - target: {fileID: 4767402331403148442, guid: f907ac33191eca3408e9474f17783db3,
        type: 3}
      propertyPath: m_Color.g
      value: 0.5411765
      objectReference: {fileID: 0}
    - target: {fileID: 4767402331403148442, guid: f907ac33191eca3408e9474f17783db3,
        type: 3}
      propertyPath: m_Color.b
      value: 0.05882353
      objectReference: {fileID: 0}
    - target: {fileID: 4767402331743859520, guid: f907ac33191eca3408e9474f17783db3,
        type: 3}
      propertyPath: m_Color.r
      value: 0.13725491
      objectReference: {fileID: 0}
    - target: {fileID: 4767402331743859520, guid: f907ac33191eca3408e9474f17783db3,
        type: 3}
      propertyPath: m_Color.g
      value: 0.5411765
      objectReference: {fileID: 0}
    - target: {fileID: 4767402331743859520, guid: f907ac33191eca3408e9474f17783db3,
        type: 3}
      propertyPath: m_Color.b
      value: 0.05882353
      objectReference: {fileID: 0}
    - target: {fileID: 8626600548876697468, guid: f907ac33191eca3408e9474f17783db3,
        type: 3}
      propertyPath: _fragments.Array.size
      value: 4
      objectReference: {fileID: 0}
    - target: {fileID: 8626600548876697468, guid: f907ac33191eca3408e9474f17783db3,
        type: 3}
      propertyPath: _targetFragments.Array.size
      value: 4
      objectReference: {fileID: 0}
    m_RemovedComponents: []
  m_SourcePrefab: {fileID: 100100000, guid: f907ac33191eca3408e9474f17783db3, type: 3}
--- !u!4 &6621351182622842951 stripped
Transform:
  m_CorrespondingSourceObject: {fileID: 4767402331332302785, guid: f907ac33191eca3408e9474f17783db3,
    type: 3}
  m_PrefabInstance: {fileID: 1858567146145494918}
  m_PrefabAsset: {fileID: 0}
--- !u!1001 &7316680280848057698
PrefabInstance:
  m_ObjectHideFlags: 0
  serializedVersion: 2
  m_Modification:
    m_TransformParent: {fileID: 6621351182622842951}
    m_Modifications:
    - target: {fileID: 4653784599009491638, guid: 08315d56d1bf8184193113df8fb7cd95,
        type: 3}
      propertyPath: m_Name
      value: Knife (1)
      objectReference: {fileID: 0}
    - target: {fileID: 4653784599009491640, guid: 08315d56d1bf8184193113df8fb7cd95,
        type: 3}
      propertyPath: m_LocalPosition.x
      value: -0.407
      objectReference: {fileID: 0}
    - target: {fileID: 4653784599009491640, guid: 08315d56d1bf8184193113df8fb7cd95,
        type: 3}
      propertyPath: m_LocalPosition.y
      value: 0.509
      objectReference: {fileID: 0}
    - target: {fileID: 4653784599009491640, guid: 08315d56d1bf8184193113df8fb7cd95,
        type: 3}
      propertyPath: m_LocalPosition.z
      value: 0
      objectReference: {fileID: 0}
    - target: {fileID: 4653784599009491640, guid: 08315d56d1bf8184193113df8fb7cd95,
        type: 3}
      propertyPath: m_LocalRotation.x
      value: -0
      objectReference: {fileID: 0}
    - target: {fileID: 4653784599009491640, guid: 08315d56d1bf8184193113df8fb7cd95,
        type: 3}
      propertyPath: m_LocalRotation.y
      value: -0
      objectReference: {fileID: 0}
    - target: {fileID: 4653784599009491640, guid: 08315d56d1bf8184193113df8fb7cd95,
        type: 3}
      propertyPath: m_LocalRotation.z
      value: -0.9486444
      objectReference: {fileID: 0}
    - target: {fileID: 4653784599009491640, guid: 08315d56d1bf8184193113df8fb7cd95,
        type: 3}
      propertyPath: m_LocalRotation.w
      value: 0.31634462
      objectReference: {fileID: 0}
    - target: {fileID: 4653784599009491640, guid: 08315d56d1bf8184193113df8fb7cd95,
        type: 3}
      propertyPath: m_RootOrder
      value: 4
      objectReference: {fileID: 0}
    - target: {fileID: 4653784599009491640, guid: 08315d56d1bf8184193113df8fb7cd95,
        type: 3}
      propertyPath: m_LocalEulerAnglesHint.x
      value: 0
      objectReference: {fileID: 0}
    - target: {fileID: 4653784599009491640, guid: 08315d56d1bf8184193113df8fb7cd95,
        type: 3}
      propertyPath: m_LocalEulerAnglesHint.y
      value: 0
      objectReference: {fileID: 0}
    - target: {fileID: 4653784599009491640, guid: 08315d56d1bf8184193113df8fb7cd95,
        type: 3}
      propertyPath: m_LocalEulerAnglesHint.z
      value: -143.116
      objectReference: {fileID: 0}
    m_RemovedComponents:
    - {fileID: 9046839179703030229, guid: 08315d56d1bf8184193113df8fb7cd95, type: 3}
  m_SourcePrefab: {fileID: 100100000, guid: 08315d56d1bf8184193113df8fb7cd95, type: 3}
--- !u!1001 &9020317318088530027
PrefabInstance:
  m_ObjectHideFlags: 0
  serializedVersion: 2
  m_Modification:
    m_TransformParent: {fileID: 6621351182622842951}
    m_Modifications:
    - target: {fileID: 4653784599009491638, guid: 08315d56d1bf8184193113df8fb7cd95,
        type: 3}
      propertyPath: m_Name
      value: Knife
      objectReference: {fileID: 0}
    - target: {fileID: 4653784599009491640, guid: 08315d56d1bf8184193113df8fb7cd95,
        type: 3}
      propertyPath: m_LocalPosition.x
      value: 0.416
      objectReference: {fileID: 0}
    - target: {fileID: 4653784599009491640, guid: 08315d56d1bf8184193113df8fb7cd95,
        type: 3}
      propertyPath: m_LocalPosition.y
      value: 0.465
      objectReference: {fileID: 0}
    - target: {fileID: 4653784599009491640, guid: 08315d56d1bf8184193113df8fb7cd95,
        type: 3}
      propertyPath: m_LocalPosition.z
      value: 0
      objectReference: {fileID: 0}
    - target: {fileID: 4653784599009491640, guid: 08315d56d1bf8184193113df8fb7cd95,
        type: 3}
      propertyPath: m_LocalRotation.x
      value: -0
      objectReference: {fileID: 0}
    - target: {fileID: 4653784599009491640, guid: 08315d56d1bf8184193113df8fb7cd95,
        type: 3}
      propertyPath: m_LocalRotation.y
      value: -0
      objectReference: {fileID: 0}
    - target: {fileID: 4653784599009491640, guid: 08315d56d1bf8184193113df8fb7cd95,
        type: 3}
      propertyPath: m_LocalRotation.z
      value: 0.9486455
      objectReference: {fileID: 0}
    - target: {fileID: 4653784599009491640, guid: 08315d56d1bf8184193113df8fb7cd95,
        type: 3}
      propertyPath: m_LocalRotation.w
      value: 0.31634128
      objectReference: {fileID: 0}
    - target: {fileID: 4653784599009491640, guid: 08315d56d1bf8184193113df8fb7cd95,
        type: 3}
      propertyPath: m_RootOrder
      value: 5
      objectReference: {fileID: 0}
    - target: {fileID: 4653784599009491640, guid: 08315d56d1bf8184193113df8fb7cd95,
        type: 3}
      propertyPath: m_LocalEulerAnglesHint.x
      value: 0
      objectReference: {fileID: 0}
    - target: {fileID: 4653784599009491640, guid: 08315d56d1bf8184193113df8fb7cd95,
        type: 3}
      propertyPath: m_LocalEulerAnglesHint.y
      value: 0
      objectReference: {fileID: 0}
    - target: {fileID: 4653784599009491640, guid: 08315d56d1bf8184193113df8fb7cd95,
        type: 3}
      propertyPath: m_LocalEulerAnglesHint.z
      value: 143.11601
      objectReference: {fileID: 0}
    m_RemovedComponents:
    - {fileID: 9046839179703030229, guid: 08315d56d1bf8184193113df8fb7cd95, type: 3}
  m_SourcePrefab: {fileID: 100100000, guid: 08315d56d1bf8184193113df8fb7cd95, type: 3}
